1000,117,28
1000,5,13
1000,5,9
1000,6,9
1000,5,8
1000,4,9
1000,4,9
1000,4,9
1000,4,8
1000,4,8
2000,7,10
2000,6,9
2000,5,9
2000,5,10
2000,6,10
2000,5,10
2000,6,10
2000,15,10
2000,5,11
2000,5,10
4000,8,12
4000,8,12
4000,8,12
4000,8,11
4000,8,11
4000,8,13
4000,8,11
4000,8,12
4000,7,12
4000,8,11
8000,14,25
8000,13,26
8000,13,24
8000,13,25
8000,13,25
8000,13,25
8000,13,25
8000,13,24
8000,12,25
8000,13,25
16000,23,35
16000,24,36
16000,24,34
16000,21,35
16000,23,34
16000,23,34
16000,26,35
16000,23,35
16000,23,34
16000,22,34
32000,37,56
32000,31,54
32000,31,55
32000,31,54
32000,31,55
32000,31,53
32000,31,55
32000,32,55
32000,32,58
32000,30,53
64000,59,101
64000,59,97
64000,58,97
64000,59,105
64000,59,98
64000,60,105
64000,58,99
64000,58,99
64000,59,105
64000,59,97
128000,115,204
128000,114,198
128000,112,197
128000,113,198
128000,120,201
128000,114,198
128000,114,197
128000,118,198
128000,113,197
128000,112,198
256000,229,423
256000,225,429
256000,226,412
256000,226,415
256000,224,416
256000,223,410
256000,222,414
256000,224,407
256000,231,405
256000,220,408
512000,476,772
512000,476,767
512000,479,752
512000,483,762
512000,477,757
512000,479,751
512000,486,753
512000,485,755
512000,475,749
512000,476,747
1024000,994,1409
1024000,989,1399
1024000,990,1400
1024000,1002,1398
1024000,991,1397
1024000,995,1393
1024000,992,1397
1024000,990,1379
1024000,982,1376
1024000,986,1387
2048000,2011,2693
2048000,2003,2688
2048000,2014,2691
2048000,2006,2692
2048000,1998,2699
2048000,2000,2674
2048000,2015,2680
2048000,2017,2671
2048000,1992,2675
2048000,2006,2663
4096000,4048,5269
4096000,4035,5267
4096000,4030,5274
4096000,4034,5308
4096000,4057,5270
4096000,4020,5276
4096000,4055,5280
4096000,4045,5278
4096000,4034,5278
4096000,4060,5274
8192000,8090,10525
8192000,8123,10541
8192000,8116,10533
8192000,8097,10549
8192000,8101,10521
8192000,8110,10472
8192000,8101,10420
8192000,8094,10510
8192000,8110,10494
8192000,8114,10415
16384000,16269,20972
16384000,16181,20925
16384000,16235,20939
16384000,16213,20920
16384000,16205,20895
16384000,16208,20963
16384000,16180,20922
16384000,16233,20939
16384000,16265,20832
16384000,16192,20859
32768000,32463,41842
32768000,32422,41964
32768000,32414,41754
32768000,32388,41846
32768000,32385,41899
32768000,32369,41713
32768000,32382,41787
32768000,32469,41758
32768000,32387,41794
32768000,32402,41878
65536000,64931,83939
65536000,64854,84006
65536000,64830,84050
65536000,64807,83940
65536000,64850,83839
65536000,64902,83854
65536000,64842,83859
65536000,64831,83878
65536000,64859,83760
65536000,64932,83681
131072000,129986,167694
131072000,129720,167887
131072000,129821,167609
131072000,129801,167529
131072000,129748,167451
131072000,129849,167517
131072000,129801,167556
131072000,129727,167610
131072000,129946,167453
131072000,129731,167496
262144000,259837,335241
262144000,259459,335268
262144000,259432,335094
262144000,259536,335226
262144000,259539,334808
262144000,259594,334971
262144000,259445,334927
262144000,259428,334807
262144000,259471,334586
262144000,259480,334899
524288000,519630,670185
524288000,519077,669478
524288000,518963,669674
524288000,519168,669758
524288000,518966,669722
524288000,518867,669888
524288000,518926,669425
524288000,518970,669627
524288000,518995,669554
524288000,518930,670186
